EESchema Schematic File Version 4
LIBS:output-switch-cache
EELAYER 26 0
EELAYER END
$Descr A4 11693 8268
encoding utf-8
Sheet 1 1
Title ""
Date ""
Rev ""
Comp ""
Comment1 ""
Comment2 ""
Comment3 ""
Comment4 ""
$EndDescr
$Comp
L output-switch-rescue:4052 OUT-4052-1
U 1 1 59454679
P 5350 4200
F 0 "OUT-4052-1" H 5450 4200 50  0000 C CNN
F 1 "4052" H 5450 4000 50  0000 C CNN
F 2 "Housings_DIP:DIP-16_W7.62mm_Socket_LongPads" H 5350 4200 60  0001 C CNN
F 3 "" H 5350 4200 60  0001 C CNN
	1    5350 4200
	0    1    1    0   
$EndComp
$Comp
L output-switch-rescue:CONN_01X02 OUT-L1
U 1 1 5945472E
P 4600 2400
F 0 "OUT-L1" H 4600 2575 50  0000 C CNN
F 1 "CONN_01X02_MALE" H 4600 2200 50  0000 C CNN
F 2 "Connectors_JST:JST_XH_B02B-XH-A_02x2.50mm_Straight" H 4600 2500 50  0001 C CNN
F 3 "" H 4600 2500 50  0001 C CNN
	1    4600 2400
	0    -1   -1   0   
$EndComp
$Comp
L output-switch-rescue:CONN_01X02 OUT-R1
U 1 1 5945479E
P 5150 2400
F 0 "OUT-R1" H 5150 2575 50  0000 C CNN
F 1 "CONN_01X02_MALE" H 5150 2200 50  0000 C CNN
F 2 "Connectors_JST:JST_XH_B02B-XH-A_02x2.50mm_Straight" H 5150 2500 50  0001 C CNN
F 3 "" H 5150 2500 50  0001 C CNN
	1    5150 2400
	0    -1   -1   0   
$EndComp
$Comp
L output-switch-rescue:CONN_01X02 OUT-L2
U 1 1 59454806
P 6050 2400
F 0 "OUT-L2" H 6050 2575 50  0000 C CNN
F 1 "CONN_01X02_MALE" H 6050 2200 50  0000 C CNN
F 2 "Connectors_JST:JST_XH_B02B-XH-A_02x2.50mm_Straight" H 6050 2500 50  0001 C CNN
F 3 "" H 6050 2500 50  0001 C CNN
	1    6050 2400
	0    -1   -1   0   
$EndComp
$Comp
L output-switch-rescue:CONN_01X02 OUT-R2
U 1 1 59454876
P 6600 2400
F 0 "OUT-R2" H 6600 2575 50  0000 C CNN
F 1 "CONN_01X02_MALE" H 6600 2200 50  0000 C CNN
F 2 "Connectors_JST:JST_XH_B02B-XH-A_02x2.50mm_Straight" H 6600 2500 50  0001 C CNN
F 3 "" H 6600 2500 50  0001 C CNN
	1    6600 2400
	0    -1   -1   0   
$EndComp
$Comp
L output-switch-rescue:CONN_01X02 OUT-PWR1
U 1 1 594548DB
P 4500 5900
F 0 "OUT-PWR1" H 4500 6075 50  0000 C CNN
F 1 "CONN_01X02_MALE" H 4500 5700 50  0000 C CNN
F 2 "Connectors_JST:JST_XH_B02B-XH-A_02x2.50mm_Straight" H 4500 6000 50  0001 C CNN
F 3 "" H 4500 6000 50  0001 C CNN
	1    4500 5900
	0    1    1    0   
$EndComp
$Comp
L output-switch-rescue:CONN_01X02 OUT-CTRL1
U 1 1 59454945
P 3950 5900
F 0 "OUT-CTRL1" H 3950 6075 50  0000 C CNN
F 1 "CONN_01X02_MALE" H 3950 5700 50  0000 C CNN
F 2 "Connectors_JST:JST_XH_B02B-XH-A_02x2.50mm_Straight" H 3950 6000 50  0001 C CNN
F 3 "" H 3950 6000 50  0001 C CNN
	1    3950 5900
	0    1    1    0   
$EndComp
$Comp
L output-switch-rescue:CONN_01X02 OUT-SW-IN-R1
U 1 1 594549B1
P 6100 5900
F 0 "OUT-SW-IN-R1" H 6100 6075 50  0000 C CNN
F 1 "CONN_01X02_MALE" H 6100 5700 50  0000 C CNN
F 2 "Connectors_JST:JST_XH_B02B-XH-A_02x2.50mm_Straight" H 6100 6000 50  0001 C CNN
F 3 "" H 6100 6000 50  0001 C CNN
	1    6100 5900
	0    1    1    0   
$EndComp
$Comp
L output-switch-rescue:CONN_01X02 OUT-SW-IN-L1
U 1 1 59454A21
P 5600 5900
F 0 "OUT-SW-IN-L1" H 5600 6075 50  0000 C CNN
F 1 "CONN_01X02_MALE" H 5600 5700 50  0000 C CNN
F 2 "Connectors_JST:JST_XH_B02B-XH-A_02x2.50mm_Straight" H 5600 6000 50  0001 C CNN
F 3 "" H 5600 6000 50  0001 C CNN
	1    5600 5900
	0    1    1    0   
$EndComp
$Comp
L Device:Jumper_NC_Small OUT-GND-JP1
U 1 1 59469FE1
P 7300 4000
F 0 "OUT-GND-JP1" H 7300 4080 50  0000 C CNN
F 1 "Jumper_NC_Small" H 7310 3940 50  0000 C CNN
F 2 "Pin_Headers:Pin_Header_Straight_2x01_Pitch2.54mm" H 7300 4000 50  0001 C CNN
F 3 "" H 7300 4000 50  0001 C CNN
	1    7300 4000
	0    1    1    0   
$EndComp
NoConn ~ 5250 3500
NoConn ~ 5350 3500
NoConn ~ 5650 3500
NoConn ~ 5750 3500
Text GLabel 7300 3900 1    60   Input ~ 0
OUT-GND-JP1
Text GLabel 7300 4100 3    60   Input ~ 0
OUT-GND-JP2
Text GLabel 6150 5700 2    60   Input ~ 0
OUT-GND-JP2
Text GLabel 7300 1950 3    60   Input ~ 0
OUT-GND-JP1
Wire Wire Line
	5550 5700 5550 4900
Wire Wire Line
	6050 5700 6050 5000
Wire Wire Line
	6050 5000 5950 5000
Wire Wire Line
	5950 5000 5950 4900
Wire Wire Line
	4550 2600 4550 1950
Wire Wire Line
	4550 1950 5100 1950
Wire Wire Line
	5100 2600 5100 1950
Connection ~ 5100 1950
Wire Wire Line
	6000 2600 6000 1950
Connection ~ 6000 1950
Wire Wire Line
	6550 2600 6550 1950
Connection ~ 6550 1950
Wire Wire Line
	4650 2600 4650 3350
Wire Wire Line
	4650 3350 5550 3350
Wire Wire Line
	5550 3350 5550 3500
Wire Wire Line
	6100 2600 6100 3300
Wire Wire Line
	6100 3300 5450 3300
Wire Wire Line
	5450 3300 5450 3500
Wire Wire Line
	5200 2600 5200 3250
Wire Wire Line
	5200 3250 5950 3250
Wire Wire Line
	5950 3250 5950 3500
Wire Wire Line
	6650 2600 6650 3200
Wire Wire Line
	6650 3200 5850 3200
Wire Wire Line
	5850 3200 5850 3500
Wire Wire Line
	5050 3500 5050 3400
Wire Wire Line
	5050 3400 4550 3400
Wire Wire Line
	4550 3400 4550 4200
Wire Wire Line
	4700 4200 4550 4200
Connection ~ 4550 4200
Wire Wire Line
	4850 4900 4850 4950
Wire Wire Line
	4850 4950 4550 4950
Connection ~ 4550 4950
Wire Wire Line
	6000 4200 5050 4200
Wire Wire Line
	5050 4200 5050 4300
Wire Wire Line
	5050 4300 4450 4300
Wire Wire Line
	4450 4300 4450 5700
Wire Wire Line
	4000 3450 4850 3450
Wire Wire Line
	4850 3450 4850 3500
Wire Wire Line
	3900 3500 4750 3500
Wire Wire Line
	4000 5700 4000 3450
Wire Wire Line
	3900 5700 3900 3500
Wire Wire Line
	5650 5700 6150 5700
Wire Wire Line
	5100 1950 6000 1950
Wire Wire Line
	6000 1950 6550 1950
Wire Wire Line
	6550 1950 7300 1950
Wire Wire Line
	4550 4200 4550 4950
Wire Wire Line
	4550 4950 4550 5700
$EndSCHEMATC
