G04 #@! TF.GenerationSoftware,KiCad,Pcbnew,(5.0.0-3-g5ebb6b6)*
G04 #@! TF.CreationDate,2019-06-20T20:26:02+02:00*
G04 #@! TF.ProjectId,amp control left,616D7020636F6E74726F6C206C656674,rev?*
G04 #@! TF.SameCoordinates,Original*
G04 #@! TF.FileFunction,Copper,L1,Top,Signal*
G04 #@! TF.FilePolarity,Positive*
%FSLAX46Y46*%
G04 Gerber Fmt 4.6, Leading zero omitted, Abs format (unit mm)*
G04 Created by KiCad (PCBNEW (5.0.0-3-g5ebb6b6)) date 2019 June 20, Thursday 20:26:02*
%MOMM*%
%LPD*%
G01*
G04 APERTURE LIST*
G04 #@! TA.AperFunction,ComponentPad*
%ADD10C,1.700000*%
G04 #@! TD*
G04 #@! TA.AperFunction,ComponentPad*
%ADD11O,1.700000X1.700000*%
G04 #@! TD*
G04 #@! TA.AperFunction,ComponentPad*
%ADD12R,1.600000X1.600000*%
G04 #@! TD*
G04 #@! TA.AperFunction,ComponentPad*
%ADD13O,1.600000X1.600000*%
G04 #@! TD*
G04 #@! TA.AperFunction,ComponentPad*
%ADD14C,1.400000*%
G04 #@! TD*
G04 #@! TA.AperFunction,ComponentPad*
%ADD15O,1.400000X1.400000*%
G04 #@! TD*
G04 #@! TA.AperFunction,ComponentPad*
%ADD16R,1.200000X1.200000*%
G04 #@! TD*
G04 #@! TA.AperFunction,ComponentPad*
%ADD17C,1.200000*%
G04 #@! TD*
G04 #@! TA.AperFunction,Conductor*
%ADD18C,0.500000*%
G04 #@! TD*
G04 #@! TA.AperFunction,Conductor*
%ADD19C,1.000000*%
G04 #@! TD*
G04 APERTURE END LIST*
D10*
G04 #@! TO.P,J1,1*
G04 #@! TO.N,VIN*
X140500000Y-65750000D03*
D11*
G04 #@! TO.P,J1,2*
G04 #@! TO.N,GND*
X137960000Y-65750000D03*
G04 #@! TO.P,J1,3*
G04 #@! TO.N,PowerSwitch*
X135420000Y-65750000D03*
G04 #@! TO.P,J1,4*
G04 #@! TO.N,GND*
X132880000Y-65750000D03*
G04 #@! TO.P,J1,5*
G04 #@! TO.N,PowerLedR*
X130340000Y-65750000D03*
G04 #@! TO.P,J1,6*
G04 #@! TO.N,GND*
X127800000Y-65750000D03*
G04 #@! TO.P,J1,7*
G04 #@! TO.N,Relay*
X125260000Y-65750000D03*
G04 #@! TO.P,J1,8*
G04 #@! TO.N,5V*
X122720000Y-65750000D03*
G04 #@! TO.P,J1,9*
G04 #@! TO.N,GND*
X120180000Y-65750000D03*
G04 #@! TO.P,J1,10*
X117640000Y-65750000D03*
G04 #@! TO.P,J1,11*
G04 #@! TO.N,RX*
X115100000Y-65750000D03*
G04 #@! TO.P,J1,12*
G04 #@! TO.N,TX*
X112560000Y-65750000D03*
G04 #@! TD*
D12*
G04 #@! TO.P,A1,1*
G04 #@! TO.N,TX*
X143000000Y-80000000D03*
D13*
G04 #@! TO.P,A1,17*
G04 #@! TO.N,Net-(A1-Pad17)*
X109980000Y-95240000D03*
G04 #@! TO.P,A1,2*
G04 #@! TO.N,RX*
X140460000Y-80000000D03*
G04 #@! TO.P,A1,18*
G04 #@! TO.N,Net-(A1-Pad18)*
X112520000Y-95240000D03*
G04 #@! TO.P,A1,3*
G04 #@! TO.N,RST*
X137920000Y-80000000D03*
G04 #@! TO.P,A1,19*
G04 #@! TO.N,Net-(A1-Pad19)*
X115060000Y-95240000D03*
G04 #@! TO.P,A1,4*
G04 #@! TO.N,GND*
X135380000Y-80000000D03*
G04 #@! TO.P,A1,20*
G04 #@! TO.N,Net-(A1-Pad20)*
X117600000Y-95240000D03*
G04 #@! TO.P,A1,5*
G04 #@! TO.N,PowerSwitch*
X132840000Y-80000000D03*
G04 #@! TO.P,A1,21*
G04 #@! TO.N,Net-(A1-Pad21)*
X120140000Y-95240000D03*
G04 #@! TO.P,A1,6*
G04 #@! TO.N,Net-(A1-Pad6)*
X130300000Y-80000000D03*
G04 #@! TO.P,A1,22*
G04 #@! TO.N,Net-(A1-Pad22)*
X122680000Y-95240000D03*
G04 #@! TO.P,A1,7*
G04 #@! TO.N,Relay*
X127760000Y-80000000D03*
G04 #@! TO.P,A1,23*
G04 #@! TO.N,Net-(A1-Pad23)*
X125220000Y-95240000D03*
G04 #@! TO.P,A1,8*
G04 #@! TO.N,Net-(A1-Pad8)*
X125220000Y-80000000D03*
G04 #@! TO.P,A1,24*
G04 #@! TO.N,Net-(A1-Pad24)*
X127760000Y-95240000D03*
G04 #@! TO.P,A1,9*
G04 #@! TO.N,Net-(A1-Pad9)*
X122680000Y-80000000D03*
G04 #@! TO.P,A1,25*
G04 #@! TO.N,Net-(A1-Pad25)*
X130300000Y-95240000D03*
G04 #@! TO.P,A1,10*
G04 #@! TO.N,Net-(A1-Pad10)*
X120140000Y-80000000D03*
G04 #@! TO.P,A1,26*
G04 #@! TO.N,LDR_S*
X132840000Y-95240000D03*
G04 #@! TO.P,A1,11*
G04 #@! TO.N,Net-(A1-Pad11)*
X117600000Y-80000000D03*
G04 #@! TO.P,A1,27*
G04 #@! TO.N,5V*
X135380000Y-95240000D03*
G04 #@! TO.P,A1,12*
G04 #@! TO.N,Net-(A1-Pad12)*
X115060000Y-80000000D03*
G04 #@! TO.P,A1,28*
G04 #@! TO.N,Net-(A1-Pad28)*
X137920000Y-95240000D03*
G04 #@! TO.P,A1,13*
G04 #@! TO.N,Net-(A1-Pad13)*
X112520000Y-80000000D03*
G04 #@! TO.P,A1,29*
G04 #@! TO.N,Net-(A1-Pad29)*
X140460000Y-95240000D03*
G04 #@! TO.P,A1,14*
G04 #@! TO.N,PowerLed*
X109980000Y-80000000D03*
G04 #@! TO.P,A1,30*
G04 #@! TO.N,VIN*
X143000000Y-95240000D03*
G04 #@! TO.P,A1,15*
G04 #@! TO.N,Net-(A1-Pad15)*
X107440000Y-80000000D03*
G04 #@! TO.P,A1,16*
G04 #@! TO.N,Net-(A1-Pad16)*
X107440000Y-95240000D03*
G04 #@! TD*
D14*
G04 #@! TO.P,R1,1*
G04 #@! TO.N,PowerLedR*
X130250000Y-70250000D03*
D15*
G04 #@! TO.P,R1,2*
G04 #@! TO.N,PowerLed*
X130250000Y-75330000D03*
G04 #@! TD*
D10*
G04 #@! TO.P,J2,1*
G04 #@! TO.N,GND*
X149500000Y-85000000D03*
D11*
G04 #@! TO.P,J2,2*
G04 #@! TO.N,5V*
X149500000Y-87540000D03*
G04 #@! TO.P,J2,3*
G04 #@! TO.N,LDR_S*
X149500000Y-90080000D03*
G04 #@! TD*
D16*
G04 #@! TO.P,C1,1*
G04 #@! TO.N,Net-(C1-Pad1)*
X149500000Y-69000000D03*
D17*
G04 #@! TO.P,C1,2*
G04 #@! TO.N,GND*
X149500000Y-67500000D03*
G04 #@! TD*
D12*
G04 #@! TO.P,SW1,1*
G04 #@! TO.N,Net-(C1-Pad1)*
X149500000Y-72000000D03*
D13*
G04 #@! TO.P,SW1,2*
G04 #@! TO.N,RST*
X149500000Y-79620000D03*
G04 #@! TD*
D18*
G04 #@! TO.N,PowerSwitch*
X135250000Y-67122081D02*
X135250000Y-75750000D01*
X132840000Y-78160000D02*
X132840000Y-80000000D01*
X135420000Y-66952081D02*
X135250000Y-67122081D01*
X135250000Y-75750000D02*
X132840000Y-78160000D01*
X135420000Y-65750000D02*
X135420000Y-66952081D01*
G04 #@! TO.N,PowerLed*
X109980000Y-80000000D02*
X109980000Y-78020000D01*
X109980000Y-78020000D02*
X111000000Y-77000000D01*
X130250000Y-75330000D02*
X130250000Y-76319949D01*
X130250000Y-76319949D02*
X130250000Y-76500000D01*
X130250000Y-76500000D02*
X129750000Y-77000000D01*
X129750000Y-77000000D02*
X111000000Y-77000000D01*
D19*
G04 #@! TO.N,VIN*
X140500000Y-68750000D02*
X140500000Y-65750000D01*
X143000000Y-95240000D02*
X143000000Y-93250000D01*
X143000000Y-93250000D02*
X144000000Y-92250000D01*
X144000000Y-92250000D02*
X145500000Y-92250000D01*
X145500000Y-92250000D02*
X146500000Y-91250000D01*
X146500000Y-91250000D02*
X146500000Y-70750000D01*
X146500000Y-70750000D02*
X145500000Y-69750000D01*
X145500000Y-69750000D02*
X141500000Y-69750000D01*
X141500000Y-69750000D02*
X140500000Y-68750000D01*
D18*
G04 #@! TO.N,PowerLedR*
X130340000Y-66952081D02*
X130340000Y-65750000D01*
X130250000Y-67042081D02*
X130340000Y-66952081D01*
X130250000Y-70250000D02*
X130250000Y-67042081D01*
G04 #@! TO.N,LDR_S*
X132840000Y-96371370D02*
X132900000Y-96431370D01*
X132840000Y-95240000D02*
X132840000Y-96371370D01*
X132900000Y-96431370D02*
X132900000Y-97300000D01*
X132900000Y-97300000D02*
X133900000Y-98300000D01*
X133900000Y-98300000D02*
X148500000Y-98300000D01*
X148500000Y-98300000D02*
X149500000Y-97300000D01*
X149500000Y-97300000D02*
X149500000Y-90080000D01*
G04 #@! TO.N,5V*
X122720000Y-66952081D02*
X122750000Y-66982081D01*
X122720000Y-65750000D02*
X122720000Y-66952081D01*
X122750000Y-66982081D02*
X122750000Y-68750000D01*
X122750000Y-68750000D02*
X121750000Y-69750000D01*
X134250000Y-92250000D02*
X104250000Y-92250000D01*
X104250000Y-92250000D02*
X103250000Y-91250000D01*
X103250000Y-91250000D02*
X103250000Y-70750000D01*
X103250000Y-70750000D02*
X104250000Y-69750000D01*
X104250000Y-69750000D02*
X121750000Y-69750000D01*
X135380000Y-95240000D02*
X135380000Y-93120000D01*
X134510000Y-92250000D02*
X135380000Y-93120000D01*
X134250000Y-92250000D02*
X134510000Y-92250000D01*
G04 #@! TO.N,Net-(C1-Pad1)*
X149500000Y-70950000D02*
X149500000Y-69000000D01*
X149500000Y-72000000D02*
X149500000Y-70950000D01*
G04 #@! TD*
M02*
