EESchema Schematic File Version 4
EELAYER 30 0
EELAYER END
$Descr A3 16535 11693
encoding utf-8
Sheet 1 1
Title ""
Date ""
Rev ""
Comp ""
Comment1 ""
Comment2 ""
Comment3 ""
Comment4 ""
$EndDescr
$Comp
L Connector:Conn_01x02_Male J3
U 1 1 5D92189E
P 5350 3400
F 0 "J3" V 5410 3440 50  0000 L CNN
F 1 "2-2 R" V 5501 3440 50  0000 L CNN
F 2 "Connector_PinHeader_2.54mm:PinHeader_1x02_P2.54mm_Vertical" H 5350 3400 50  0001 C CNN
F 3 "~" H 5350 3400 50  0001 C CNN
	1    5350 3400
	0    1    1    0   
$EndComp
$Comp
L Device:R R3
U 1 1 5D921917
P 5300 3900
F 0 "R3" V 5093 3900 50  0000 C CNN
F 1 "10K" V 5184 3900 50  0000 C CNN
F 2 "Resistor_THT:R_Axial_DIN0204_L3.6mm_D1.6mm_P7.62mm_Horizontal" V 5230 3900 50  0001 C CNN
F 3 "~" H 5300 3900 50  0001 C CNN
	1    5300 3900
	0    1    1    0   
$EndComp
$Comp
L Connector:Conn_01x02_Male J1
U 1 1 5D921B35
P 2150 3400
F 0 "J1" V 2210 3440 50  0000 L CNN
F 1 "2-1 R" V 2301 3440 50  0000 L CNN
F 2 "Connector_PinHeader_2.54mm:PinHeader_1x02_P2.54mm_Vertical" H 2150 3400 50  0001 C CNN
F 3 "~" H 2150 3400 50  0001 C CNN
	1    2150 3400
	0    1    1    0   
$EndComp
$Comp
L Device:R R1
U 1 1 5D921B3B
P 2100 3900
F 0 "R1" V 1893 3900 50  0000 C CNN
F 1 "10K" V 1984 3900 50  0000 C CNN
F 2 "Resistor_THT:R_Axial_DIN0204_L3.6mm_D1.6mm_P7.62mm_Horizontal" V 2030 3900 50  0001 C CNN
F 3 "~" H 2100 3900 50  0001 C CNN
	1    2100 3900
	0    1    1    0   
$EndComp
$Comp
L Connector:Conn_01x02_Male J2
U 1 1 5D921CB3
P 3750 3400
F 0 "J2" V 3810 3440 50  0000 L CNN
F 1 "1-1 R" V 3901 3440 50  0000 L CNN
F 2 "Connector_PinHeader_2.54mm:PinHeader_1x02_P2.54mm_Vertical" H 3750 3400 50  0001 C CNN
F 3 "~" H 3750 3400 50  0001 C CNN
	1    3750 3400
	0    1    1    0   
$EndComp
$Comp
L Device:R R2
U 1 1 5D921CBA
P 3700 3900
F 0 "R2" V 3493 3900 50  0000 C CNN
F 1 "10K" V 3584 3900 50  0000 C CNN
F 2 "Resistor_THT:R_Axial_DIN0204_L3.6mm_D1.6mm_P7.62mm_Horizontal" V 3630 3900 50  0001 C CNN
F 3 "~" H 3700 3900 50  0001 C CNN
	1    3700 3900
	0    1    1    0   
$EndComp
$Comp
L Connector:Conn_01x02_Male J4
U 1 1 5D921D7C
P 6950 3400
F 0 "J4" V 7010 3440 50  0000 L CNN
F 1 "1-2 R" V 7101 3440 50  0000 L CNN
F 2 "Connector_PinHeader_2.54mm:PinHeader_1x02_P2.54mm_Vertical" H 6950 3400 50  0001 C CNN
F 3 "~" H 6950 3400 50  0001 C CNN
	1    6950 3400
	0    1    1    0   
$EndComp
$Comp
L Device:R R4
U 1 1 5D921D83
P 6900 3900
F 0 "R4" V 6693 3900 50  0000 C CNN
F 1 "10K" V 6784 3900 50  0000 C CNN
F 2 "Resistor_THT:R_Axial_DIN0204_L3.6mm_D1.6mm_P7.62mm_Horizontal" V 6830 3900 50  0001 C CNN
F 3 "~" H 6900 3900 50  0001 C CNN
	1    6900 3900
	0    1    1    0   
$EndComp
$Comp
L Connector:Conn_01x02_Male J5
U 1 1 5D921DD9
P 8550 3400
F 0 "J5" V 8610 3440 50  0000 L CNN
F 1 "2-1 L" V 8701 3440 50  0000 L CNN
F 2 "Connector_PinHeader_2.54mm:PinHeader_1x02_P2.54mm_Vertical" H 8550 3400 50  0001 C CNN
F 3 "~" H 8550 3400 50  0001 C CNN
	1    8550 3400
	0    1    1    0   
$EndComp
$Comp
L Device:R R5
U 1 1 5D921DE0
P 8500 3900
F 0 "R5" V 8293 3900 50  0000 C CNN
F 1 "10K" V 8384 3900 50  0000 C CNN
F 2 "Resistor_THT:R_Axial_DIN0204_L3.6mm_D1.6mm_P7.62mm_Horizontal" V 8430 3900 50  0001 C CNN
F 3 "~" H 8500 3900 50  0001 C CNN
	1    8500 3900
	0    1    1    0   
$EndComp
$Comp
L Connector:Conn_01x02_Male J6
U 1 1 5D921E45
P 10150 3400
F 0 "J6" V 10210 3440 50  0000 L CNN
F 1 "1-1 L" V 10301 3440 50  0000 L CNN
F 2 "Connector_PinHeader_2.54mm:PinHeader_1x02_P2.54mm_Vertical" H 10150 3400 50  0001 C CNN
F 3 "~" H 10150 3400 50  0001 C CNN
	1    10150 3400
	0    1    1    0   
$EndComp
$Comp
L Device:R R6
U 1 1 5D921E4C
P 10100 3900
F 0 "R6" V 9893 3900 50  0000 C CNN
F 1 "10K" V 9984 3900 50  0000 C CNN
F 2 "Resistor_THT:R_Axial_DIN0204_L3.6mm_D1.6mm_P7.62mm_Horizontal" V 10030 3900 50  0001 C CNN
F 3 "~" H 10100 3900 50  0001 C CNN
	1    10100 3900
	0    1    1    0   
$EndComp
$Comp
L Connector:Conn_01x02_Male J7
U 1 1 5D921EA8
P 11750 3400
F 0 "J7" V 11810 3440 50  0000 L CNN
F 1 "2-2 L" V 11901 3440 50  0000 L CNN
F 2 "Connector_PinHeader_2.54mm:PinHeader_1x02_P2.54mm_Vertical" H 11750 3400 50  0001 C CNN
F 3 "~" H 11750 3400 50  0001 C CNN
	1    11750 3400
	0    1    1    0   
$EndComp
$Comp
L Device:R R7
U 1 1 5D921EAF
P 11700 3900
F 0 "R7" V 11493 3900 50  0000 C CNN
F 1 "10K" V 11584 3900 50  0000 C CNN
F 2 "Resistor_THT:R_Axial_DIN0204_L3.6mm_D1.6mm_P7.62mm_Horizontal" V 11630 3900 50  0001 C CNN
F 3 "~" H 11700 3900 50  0001 C CNN
	1    11700 3900
	0    1    1    0   
$EndComp
$Comp
L Connector:Conn_01x02_Male J8
U 1 1 5D921F2F
P 13350 3400
F 0 "J8" V 13410 3440 50  0000 L CNN
F 1 "1-2 L" V 13501 3440 50  0000 L CNN
F 2 "Connector_PinHeader_2.54mm:PinHeader_1x02_P2.54mm_Vertical" H 13350 3400 50  0001 C CNN
F 3 "~" H 13350 3400 50  0001 C CNN
	1    13350 3400
	0    1    1    0   
$EndComp
$Comp
L Device:R R8
U 1 1 5D921F36
P 13300 3900
F 0 "R8" V 13093 3900 50  0000 C CNN
F 1 "10K" V 13184 3900 50  0000 C CNN
F 2 "Resistor_THT:R_Axial_DIN0204_L3.6mm_D1.6mm_P7.62mm_Horizontal" V 13230 3900 50  0001 C CNN
F 3 "~" H 13300 3900 50  0001 C CNN
	1    13300 3900
	0    1    1    0   
$EndComp
$Comp
L Connector:Conn_01x02_Male J12
U 1 1 5D9248ED
P 13250 8000
F 0 "J12" V 13403 7812 50  0000 R CNN
F 1 "Input_1_R" V 13312 7812 50  0000 R CNN
F 2 "Connector_PinHeader_2.54mm:PinHeader_1x02_P2.54mm_Vertical" H 13250 8000 50  0001 C CNN
F 3 "~" H 13250 8000 50  0001 C CNN
	1    13250 8000
	0    -1   -1   0   
$EndComp
$Comp
L Connector:Conn_01x02_Male J11
U 1 1 5D924A44
P 11650 8000
F 0 "J11" V 11803 7813 50  0000 R CNN
F 1 "Input_1_L" V 11712 7813 50  0000 R CNN
F 2 "Connector_PinHeader_2.54mm:PinHeader_1x02_P2.54mm_Vertical" H 11650 8000 50  0001 C CNN
F 3 "~" H 11650 8000 50  0001 C CNN
	1    11650 8000
	0    -1   -1   0   
$EndComp
Wire Wire Line
	2050 3600 2050 3800
Wire Wire Line
	2050 3800 1950 3800
Wire Wire Line
	1950 3800 1950 3900
Wire Wire Line
	1950 4000 2450 4000
Connection ~ 1950 3900
Wire Wire Line
	1950 3900 1950 4000
Wire Wire Line
	2150 3600 2150 3800
Wire Wire Line
	2150 3800 2250 3800
Wire Wire Line
	2250 3800 2250 3900
Wire Wire Line
	3650 3600 3650 3800
Wire Wire Line
	3650 3800 3550 3800
Wire Wire Line
	3550 3800 3550 3900
Wire Wire Line
	3550 4000 4050 4000
Connection ~ 3550 3900
Wire Wire Line
	3550 3900 3550 4000
Wire Wire Line
	3750 3600 3750 3800
Wire Wire Line
	3750 3800 3850 3800
Wire Wire Line
	3850 3800 3850 3900
Wire Wire Line
	5250 3600 5250 3800
Wire Wire Line
	5250 3800 5150 3800
Wire Wire Line
	5150 3800 5150 3900
Wire Wire Line
	5150 4000 5650 4000
Connection ~ 5150 3900
Wire Wire Line
	5150 3900 5150 4000
Wire Wire Line
	5350 3600 5350 3800
Wire Wire Line
	5350 3800 5450 3800
Wire Wire Line
	5450 3800 5450 3900
Wire Wire Line
	6850 3600 6850 3800
Wire Wire Line
	6850 3800 6750 3800
Wire Wire Line
	6750 3800 6750 3900
Wire Wire Line
	6750 4000 7250 4000
Connection ~ 6750 3900
Wire Wire Line
	6750 3900 6750 4000
Wire Wire Line
	6950 3600 6950 3800
Wire Wire Line
	6950 3800 7050 3800
Wire Wire Line
	7050 3800 7050 3900
Wire Wire Line
	8450 3600 8450 3800
Wire Wire Line
	8450 3800 8350 3800
Wire Wire Line
	8350 3800 8350 3900
Connection ~ 8350 3900
Wire Wire Line
	8350 3900 8350 4000
Wire Wire Line
	8550 3600 8550 3800
Wire Wire Line
	8550 3800 8650 3800
Wire Wire Line
	8650 3800 8650 3900
Wire Wire Line
	10050 3600 10050 3800
Wire Wire Line
	10050 3800 9950 3800
Wire Wire Line
	9950 3800 9950 3900
Wire Wire Line
	9950 4000 10450 4000
Connection ~ 9950 3900
Wire Wire Line
	9950 3900 9950 4000
Wire Wire Line
	10150 3600 10150 3800
Wire Wire Line
	10150 3800 10250 3800
Wire Wire Line
	10250 3800 10250 3900
Wire Wire Line
	11650 3600 11650 3800
Wire Wire Line
	11650 3800 11550 3800
Wire Wire Line
	11550 3800 11550 3900
Wire Wire Line
	11550 4000 12050 4000
Connection ~ 11550 3900
Wire Wire Line
	11550 3900 11550 4000
Wire Wire Line
	11750 3600 11750 3800
Wire Wire Line
	11750 3800 11850 3800
Wire Wire Line
	11850 3800 11850 3900
Wire Wire Line
	13250 3600 13250 3800
Wire Wire Line
	13250 3800 13150 3800
Wire Wire Line
	13150 3800 13150 3900
Wire Wire Line
	13150 3900 13150 4000
Wire Wire Line
	13150 4000 13650 4000
Connection ~ 13150 3900
Wire Wire Line
	13350 3600 13350 3800
Wire Wire Line
	13350 3800 13450 3800
Wire Wire Line
	13450 3800 13450 3900
Wire Wire Line
	5600 4500 5800 4500
Wire Wire Line
	8800 4500 9000 4500
Wire Wire Line
	12000 4500 12200 4500
Wire Wire Line
	4000 4500 4200 4500
Wire Wire Line
	13600 4500 13800 4500
Wire Wire Line
	10400 4500 10600 4500
$Comp
L Device:R R13
U 1 1 5DA16183
P 1300 6450
F 0 "R13" H 1370 6496 50  0000 L CNN
F 1 "470R" H 1370 6405 50  0000 L CNN
F 2 "Resistor_SMD:R_1206_3216Metric_Pad1.42x1.75mm_HandSolder" V 1230 6450 50  0001 C CNN
F 3 "~" H 1300 6450 50  0001 C CNN
	1    1300 6450
	1    0    0    -1  
$EndComp
$Comp
L Device:R R14
U 1 1 5DA16248
P 1700 6450
F 0 "R14" H 1770 6496 50  0000 L CNN
F 1 "470R" H 1770 6405 50  0000 L CNN
F 2 "Resistor_SMD:R_1206_3216Metric_Pad1.42x1.75mm_HandSolder" V 1630 6450 50  0001 C CNN
F 3 "~" H 1700 6450 50  0001 C CNN
	1    1700 6450
	1    0    0    -1  
$EndComp
$Comp
L Device:R R15
U 1 1 5DA162E5
P 2100 6450
F 0 "R15" H 2170 6496 50  0000 L CNN
F 1 "470R" H 2170 6405 50  0000 L CNN
F 2 "Resistor_SMD:R_1206_3216Metric_Pad1.42x1.75mm_HandSolder" V 2030 6450 50  0001 C CNN
F 3 "~" H 2100 6450 50  0001 C CNN
	1    2100 6450
	1    0    0    -1  
$EndComp
$Comp
L Device:R R16
U 1 1 5DA1638C
P 2500 6450
F 0 "R16" H 2570 6496 50  0000 L CNN
F 1 "470R" H 2570 6405 50  0000 L CNN
F 2 "Resistor_SMD:R_1206_3216Metric_Pad1.42x1.75mm_HandSolder" V 2430 6450 50  0001 C CNN
F 3 "~" H 2500 6450 50  0001 C CNN
	1    2500 6450
	1    0    0    -1  
$EndComp
$Comp
L Device:R R11
U 1 1 5DAFBC2D
P 11700 7000
F 0 "R11" V 11493 7000 50  0000 C CNN
F 1 "10K" V 11584 7000 50  0000 C CNN
F 2 "Resistor_THT:R_Axial_DIN0204_L3.6mm_D1.6mm_P7.62mm_Horizontal" V 11630 7000 50  0001 C CNN
F 3 "~" H 11700 7000 50  0001 C CNN
	1    11700 7000
	0    -1   -1   0   
$EndComp
$Comp
L Device:R R12
U 1 1 5DAFBCD6
P 13300 7000
F 0 "R12" V 13093 7000 50  0000 C CNN
F 1 "10K" V 13184 7000 50  0000 C CNN
F 2 "Resistor_THT:R_Axial_DIN0204_L3.6mm_D1.6mm_P7.62mm_Horizontal" V 13230 7000 50  0001 C CNN
F 3 "~" H 13300 7000 50  0001 C CNN
	1    13300 7000
	0    -1   -1   0   
$EndComp
Wire Wire Line
	11550 7000 11550 7100
Wire Wire Line
	11550 7100 11650 7100
Wire Wire Line
	11750 7100 11850 7100
Wire Wire Line
	11850 7100 11850 7000
Wire Wire Line
	13250 7800 13250 7100
Wire Wire Line
	13250 7100 13150 7100
Wire Wire Line
	13150 7100 13150 7000
Wire Wire Line
	13350 7800 13350 7100
Wire Wire Line
	13350 7100 13450 7100
Wire Wire Line
	13450 7100 13450 7000
Wire Wire Line
	13450 7000 13450 6900
Wire Wire Line
	13450 6900 13350 6900
Connection ~ 13450 7000
Wire Wire Line
	11850 7000 11850 6900
Wire Wire Line
	11850 6900 11750 6900
Connection ~ 11850 7000
$Comp
L output-switch---relay-rescue:AQW212EH-Panasonic_PhotoMOS K1
U 1 1 5D99796E
P 2050 4550
F 0 "K1" H 2050 4965 50  0000 C CNN
F 1 "AQW212EH" H 2050 4874 50  0000 C CNN
F 2 "Package_DIP:DIP-8_W7.62mm_Socket_LongPads" H 1950 4150 50  0001 C CNN
F 3 "http://www.produktinfo.conrad.com/datenblaetter/500000-524999/504886-da-01-en-PHOTOMOS_RELAIS_AQW_2A_400MA_60V.pdf" H 2050 4250 50  0001 C CNN
	1    2050 4550
	1    0    0    -1  
$EndComp
$Comp
L output-switch---relay-rescue:AQW212EH-Panasonic_PhotoMOS K2
U 1 1 5D997A21
P 3650 4550
F 0 "K2" H 3650 4965 50  0000 C CNN
F 1 "AQW212EH" H 3650 4874 50  0000 C CNN
F 2 "Package_DIP:DIP-8_W7.62mm_Socket_LongPads" H 3550 4150 50  0001 C CNN
F 3 "http://www.produktinfo.conrad.com/datenblaetter/500000-524999/504886-da-01-en-PHOTOMOS_RELAIS_AQW_2A_400MA_60V.pdf" H 3650 4250 50  0001 C CNN
	1    3650 4550
	1    0    0    -1  
$EndComp
$Comp
L output-switch---relay-rescue:AQW212EH-Panasonic_PhotoMOS K3
U 1 1 5D997A8E
P 5250 4550
F 0 "K3" H 5250 4965 50  0000 C CNN
F 1 "AQW212EH" H 5250 4874 50  0000 C CNN
F 2 "Package_DIP:DIP-8_W7.62mm_Socket_LongPads" H 5150 4150 50  0001 C CNN
F 3 "http://www.produktinfo.conrad.com/datenblaetter/500000-524999/504886-da-01-en-PHOTOMOS_RELAIS_AQW_2A_400MA_60V.pdf" H 5250 4250 50  0001 C CNN
	1    5250 4550
	1    0    0    -1  
$EndComp
$Comp
L output-switch---relay-rescue:AQW212EH-Panasonic_PhotoMOS K4
U 1 1 5D997AFB
P 6850 4550
F 0 "K4" H 6850 4965 50  0000 C CNN
F 1 "AQW212EH" H 6850 4874 50  0000 C CNN
F 2 "Package_DIP:DIP-8_W7.62mm_Socket_LongPads" H 6750 4150 50  0001 C CNN
F 3 "http://www.produktinfo.conrad.com/datenblaetter/500000-524999/504886-da-01-en-PHOTOMOS_RELAIS_AQW_2A_400MA_60V.pdf" H 6850 4250 50  0001 C CNN
	1    6850 4550
	1    0    0    -1  
$EndComp
$Comp
L output-switch---relay-rescue:AQW212EH-Panasonic_PhotoMOS K5
U 1 1 5D997B6A
P 8450 4550
F 0 "K5" H 8450 4965 50  0000 C CNN
F 1 "AQW212EH" H 8450 4874 50  0000 C CNN
F 2 "Package_DIP:DIP-8_W7.62mm_Socket_LongPads" H 8350 4150 50  0001 C CNN
F 3 "http://www.produktinfo.conrad.com/datenblaetter/500000-524999/504886-da-01-en-PHOTOMOS_RELAIS_AQW_2A_400MA_60V.pdf" H 8450 4250 50  0001 C CNN
	1    8450 4550
	1    0    0    -1  
$EndComp
$Comp
L output-switch---relay-rescue:AQW212EH-Panasonic_PhotoMOS K6
U 1 1 5D997BE0
P 10050 4550
F 0 "K6" H 10050 4965 50  0000 C CNN
F 1 "AQW212EH" H 10050 4874 50  0000 C CNN
F 2 "Package_DIP:DIP-8_W7.62mm_Socket_LongPads" H 9950 4150 50  0001 C CNN
F 3 "http://www.produktinfo.conrad.com/datenblaetter/500000-524999/504886-da-01-en-PHOTOMOS_RELAIS_AQW_2A_400MA_60V.pdf" H 10050 4250 50  0001 C CNN
	1    10050 4550
	1    0    0    -1  
$EndComp
$Comp
L output-switch---relay-rescue:AQW212EH-Panasonic_PhotoMOS K7
U 1 1 5D997C57
P 11650 4550
F 0 "K7" H 11650 4965 50  0000 C CNN
F 1 "AQW212EH" H 11650 4874 50  0000 C CNN
F 2 "Package_DIP:DIP-8_W7.62mm_Socket_LongPads" H 11550 4150 50  0001 C CNN
F 3 "http://www.produktinfo.conrad.com/datenblaetter/500000-524999/504886-da-01-en-PHOTOMOS_RELAIS_AQW_2A_400MA_60V.pdf" H 11650 4250 50  0001 C CNN
	1    11650 4550
	1    0    0    -1  
$EndComp
$Comp
L output-switch---relay-rescue:AQW212EH-Panasonic_PhotoMOS K8
U 1 1 5D997CCF
P 13250 4550
F 0 "K8" H 13250 4965 50  0000 C CNN
F 1 "AQW212EH" H 13250 4874 50  0000 C CNN
F 2 "Package_DIP:DIP-8_W7.62mm_Socket_LongPads" H 13150 4150 50  0001 C CNN
F 3 "http://www.produktinfo.conrad.com/datenblaetter/500000-524999/504886-da-01-en-PHOTOMOS_RELAIS_AQW_2A_400MA_60V.pdf" H 13250 4250 50  0001 C CNN
	1    13250 4550
	1    0    0    -1  
$EndComp
Wire Wire Line
	2450 4000 2450 4400
Wire Wire Line
	2450 4400 2400 4400
Wire Wire Line
	4050 4000 4050 4400
Wire Wire Line
	4050 4400 4000 4400
Wire Wire Line
	3300 4600 3200 4600
Wire Wire Line
	3200 4600 3200 4550
Wire Wire Line
	3200 4400 3300 4400
Wire Wire Line
	3300 4700 3250 4700
Wire Wire Line
	3250 4700 3250 4650
Wire Wire Line
	3250 4500 3300 4500
Wire Wire Line
	1700 4700 1650 4700
Wire Wire Line
	1650 4500 1700 4500
Wire Wire Line
	1700 4600 1600 4600
Wire Wire Line
	1600 4400 1700 4400
Wire Wire Line
	3250 4650 3150 4650
Connection ~ 3250 4650
Wire Wire Line
	3250 4650 3250 4500
Connection ~ 3200 4550
Wire Wire Line
	3200 4550 3200 4400
Wire Wire Line
	1600 4400 1600 4550
Wire Wire Line
	1650 4500 1650 4650
Wire Wire Line
	1650 4650 1550 4650
Connection ~ 1650 4650
Wire Wire Line
	1650 4650 1650 4700
Connection ~ 1600 4550
Wire Wire Line
	1600 4550 1600 4600
Wire Wire Line
	4900 4700 4850 4700
Wire Wire Line
	4850 4700 4850 4650
Wire Wire Line
	4850 4500 4900 4500
Wire Wire Line
	4850 4650 4750 4650
Connection ~ 4850 4650
Wire Wire Line
	4850 4650 4850 4500
Wire Wire Line
	4900 4600 4800 4600
Wire Wire Line
	4800 4600 4800 4550
Wire Wire Line
	4800 4400 4900 4400
Connection ~ 4800 4550
Wire Wire Line
	4800 4550 4800 4400
Wire Wire Line
	5650 4000 5650 4400
Wire Wire Line
	5650 4400 5600 4400
Wire Wire Line
	6500 4700 6450 4700
Wire Wire Line
	6450 4700 6450 4650
Wire Wire Line
	6450 4500 6500 4500
Wire Wire Line
	6450 4650 6350 4650
Connection ~ 6450 4650
Wire Wire Line
	6450 4650 6450 4500
Wire Wire Line
	6500 4600 6400 4600
Wire Wire Line
	6400 4600 6400 4550
Wire Wire Line
	6400 4400 6500 4400
Connection ~ 6400 4550
Wire Wire Line
	6400 4550 6400 4400
Wire Wire Line
	7250 4000 7250 4400
Wire Wire Line
	7250 4400 7200 4400
Wire Wire Line
	8100 4700 8050 4700
Wire Wire Line
	8050 4700 8050 4650
Wire Wire Line
	8050 4500 8100 4500
Wire Wire Line
	8050 4650 7950 4650
Connection ~ 8050 4650
Wire Wire Line
	8050 4650 8050 4500
Wire Wire Line
	8100 4600 8000 4600
Wire Wire Line
	8000 4600 8000 4550
Wire Wire Line
	8000 4400 8100 4400
Connection ~ 8000 4550
Wire Wire Line
	8000 4550 8000 4400
Wire Wire Line
	8850 4000 8850 4400
Wire Wire Line
	8850 4400 8800 4400
Wire Wire Line
	9700 4700 9650 4700
Wire Wire Line
	9650 4700 9650 4650
Wire Wire Line
	9650 4500 9700 4500
Wire Wire Line
	9700 4600 9600 4600
Wire Wire Line
	9600 4600 9600 4550
Wire Wire Line
	9600 4400 9700 4400
Connection ~ 9600 4550
Wire Wire Line
	9600 4550 9600 4400
Wire Wire Line
	9650 4650 9550 4650
Connection ~ 9650 4650
Wire Wire Line
	9650 4650 9650 4500
Wire Wire Line
	10450 4000 10450 4400
Wire Wire Line
	10450 4400 10400 4400
Wire Wire Line
	11300 4500 11250 4500
Wire Wire Line
	11250 4500 11250 4650
Wire Wire Line
	11250 4700 11300 4700
Wire Wire Line
	11250 4650 11150 4650
Connection ~ 11250 4650
Wire Wire Line
	11250 4650 11250 4700
Wire Wire Line
	11300 4600 11200 4600
Wire Wire Line
	11200 4600 11200 4550
Wire Wire Line
	11200 4400 11300 4400
Connection ~ 11200 4550
Wire Wire Line
	11200 4550 11200 4400
Wire Wire Line
	12050 4000 12050 4400
Wire Wire Line
	12050 4400 12000 4400
Wire Wire Line
	12900 4700 12850 4700
Wire Wire Line
	12850 4700 12850 4650
Wire Wire Line
	12850 4500 12900 4500
Wire Wire Line
	12900 4600 12800 4600
Wire Wire Line
	12800 4600 12800 4550
Wire Wire Line
	12800 4400 12900 4400
Connection ~ 12800 4550
Wire Wire Line
	12800 4550 12800 4400
Wire Wire Line
	12850 4650 12750 4650
Connection ~ 12850 4650
Wire Wire Line
	12850 4650 12850 4500
Wire Wire Line
	13600 4400 13650 4400
Wire Wire Line
	13650 4400 13650 4000
Wire Wire Line
	1300 4550 1600 4550
Wire Wire Line
	2900 4550 3200 4550
Wire Wire Line
	4500 4550 4800 4550
Wire Wire Line
	6100 4550 6400 4550
Wire Wire Line
	7700 4550 8000 4550
Wire Wire Line
	9300 4550 9600 4550
Wire Wire Line
	10900 4550 11200 4550
Wire Wire Line
	12500 4550 12800 4550
Wire Wire Line
	12750 4650 12750 5950
Wire Wire Line
	1550 4650 1550 5950
Connection ~ 1550 5950
Wire Wire Line
	1550 5950 900  5950
Wire Wire Line
	3150 4650 3150 5950
Wire Wire Line
	1550 5950 3150 5950
Connection ~ 3150 5950
Wire Wire Line
	3150 5950 4750 5950
Wire Wire Line
	4750 4650 4750 5950
Connection ~ 4750 5950
Wire Wire Line
	4750 5950 6350 5950
Wire Wire Line
	6350 4650 6350 5950
Connection ~ 6350 5950
Wire Wire Line
	6350 5950 7950 5950
Wire Wire Line
	7950 4650 7950 5950
Connection ~ 7950 5950
Wire Wire Line
	7950 5950 9550 5950
Wire Wire Line
	9550 4650 9550 5950
Connection ~ 9550 5950
Wire Wire Line
	9550 5950 11150 5950
Wire Wire Line
	11150 4650 11150 5950
$Comp
L Connector:Conn_01x05_Male J13
U 1 1 5DE0041B
P 1850 7250
F 0 "J13" V 2003 6963 50  0000 R CNN
F 1 "Conn_01x05_Male" V 1912 6963 50  0000 R CNN
F 2 "Connector_PinHeader_2.54mm:PinHeader_1x05_P2.54mm_Vertical" H 1850 7250 50  0001 C CNN
F 3 "~" H 1850 7250 50  0001 C CNN
	1    1850 7250
	0    -1   -1   0   
$EndComp
Wire Wire Line
	1650 7050 1650 6950
Wire Wire Line
	1650 6950 900  6950
Wire Wire Line
	900  5950 900  6950
Wire Wire Line
	1300 6600 1300 6900
Wire Wire Line
	1300 6900 1750 6900
Wire Wire Line
	1750 6900 1750 7050
Wire Wire Line
	1700 6600 1700 6850
Wire Wire Line
	1700 6850 1850 6850
Wire Wire Line
	1850 6850 1850 7050
Wire Wire Line
	2500 6600 2500 6950
Wire Wire Line
	2500 6950 2050 6950
Wire Wire Line
	2050 6950 2050 7050
Wire Wire Line
	2100 6600 2100 6900
Wire Wire Line
	2100 6900 1950 6900
Wire Wire Line
	1950 6900 1950 7050
Wire Wire Line
	1300 4550 1300 5900
Wire Wire Line
	1300 5900 7700 5900
Wire Wire Line
	7700 5900 7700 4550
Connection ~ 1300 5900
Wire Wire Line
	1300 5900 1300 6300
Wire Wire Line
	1700 6300 1700 5850
Wire Wire Line
	1700 5850 4500 5850
Wire Wire Line
	4500 5850 4500 4550
Wire Wire Line
	4500 5850 10900 5850
Wire Wire Line
	10900 5850 10900 4550
Connection ~ 4500 5850
Wire Wire Line
	2100 6300 2100 5800
Wire Wire Line
	2100 5800 2900 5800
Wire Wire Line
	2900 5800 2900 4550
Wire Wire Line
	2900 5800 9300 5800
Wire Wire Line
	9300 5800 9300 4550
Connection ~ 2900 5800
Wire Wire Line
	2500 6300 2500 5750
Wire Wire Line
	2500 5750 6100 5750
Wire Wire Line
	6100 5750 6100 4550
Wire Wire Line
	12750 5950 11150 5950
Connection ~ 11150 5950
$Comp
L Connector:Conn_01x02_Male J10
U 1 1 5DA4F032
P 8800 8000
F 0 "J10" V 8953 7812 50  0000 R CNN
F 1 "Input_2_R" V 8862 7812 50  0000 R CNN
F 2 "Connector_PinHeader_2.54mm:PinHeader_1x02_P2.54mm_Vertical" H 8800 8000 50  0001 C CNN
F 3 "~" H 8800 8000 50  0001 C CNN
	1    8800 8000
	0    -1   -1   0   
$EndComp
$Comp
L Connector:Conn_01x02_Male J9
U 1 1 5DA4F038
P 7200 7950
F 0 "J9" V 7353 7763 50  0000 R CNN
F 1 "Input_2_L" V 7262 7763 50  0000 R CNN
F 2 "Connector_PinHeader_2.54mm:PinHeader_1x02_P2.54mm_Vertical" H 7200 7950 50  0001 C CNN
F 3 "~" H 7200 7950 50  0001 C CNN
	1    7200 7950
	0    -1   -1   0   
$EndComp
$Comp
L Device:R R9
U 1 1 5DA4F03E
P 7250 7000
F 0 "R9" V 7043 7000 50  0000 C CNN
F 1 "10K" V 7134 7000 50  0000 C CNN
F 2 "Resistor_THT:R_Axial_DIN0204_L3.6mm_D1.6mm_P7.62mm_Horizontal" V 7180 7000 50  0001 C CNN
F 3 "~" H 7250 7000 50  0001 C CNN
	1    7250 7000
	0    -1   -1   0   
$EndComp
$Comp
L Device:R R10
U 1 1 5DA4F044
P 8850 7000
F 0 "R10" V 8643 7000 50  0000 C CNN
F 1 "10K" V 8734 7000 50  0000 C CNN
F 2 "Resistor_THT:R_Axial_DIN0204_L3.6mm_D1.6mm_P7.62mm_Horizontal" V 8780 7000 50  0001 C CNN
F 3 "~" H 8850 7000 50  0001 C CNN
	1    8850 7000
	0    -1   -1   0   
$EndComp
Wire Wire Line
	7100 7000 7100 7100
Wire Wire Line
	7100 7100 7200 7100
Wire Wire Line
	7300 7100 7400 7100
Wire Wire Line
	7400 7100 7400 7000
Wire Wire Line
	8800 7800 8800 7100
Wire Wire Line
	8800 7100 8700 7100
Wire Wire Line
	8700 7100 8700 7000
Wire Wire Line
	8900 7800 8900 7100
Wire Wire Line
	8900 7100 9000 7100
Wire Wire Line
	9000 7100 9000 7000
Wire Wire Line
	9000 7000 9000 6900
Wire Wire Line
	9000 6900 8900 6900
Connection ~ 9000 7000
Wire Wire Line
	7400 7000 7400 6900
Wire Wire Line
	7400 6900 7300 6900
Connection ~ 7400 7000
Wire Wire Line
	11650 7800 11650 7100
Wire Wire Line
	11750 7800 11750 7100
Wire Wire Line
	7200 7750 7200 7100
Wire Wire Line
	7300 7750 7300 7100
Wire Wire Line
	9000 4500 9000 6100
Wire Wire Line
	9000 6100 7300 6100
Wire Wire Line
	7300 6100 7300 6900
Wire Wire Line
	12200 4500 12200 6100
Wire Wire Line
	12200 6100 9000 6100
Connection ~ 9000 6100
Wire Wire Line
	2750 4500 2750 6250
Wire Wire Line
	2750 6250 5800 6250
Wire Wire Line
	2400 4500 2750 4500
Wire Wire Line
	8900 6250 8900 6900
Wire Wire Line
	5800 4500 5800 6250
Connection ~ 5800 6250
Wire Wire Line
	5800 6250 8900 6250
Wire Wire Line
	10600 4500 10600 6250
Wire Wire Line
	10600 6250 11750 6250
Wire Wire Line
	11750 6250 11750 6900
Wire Wire Line
	13800 4500 13800 6250
Wire Wire Line
	13800 6250 11750 6250
Connection ~ 11750 6250
Wire Wire Line
	4200 4500 4200 6400
Wire Wire Line
	4200 6400 7500 6400
Wire Wire Line
	13350 6400 13350 6900
Wire Wire Line
	7500 4500 7500 6400
Wire Wire Line
	7200 4500 7500 4500
Connection ~ 7500 6400
Wire Wire Line
	7500 6400 13350 6400
Wire Wire Line
	6100 5750 12500 5750
Wire Wire Line
	12500 5750 12500 4550
Connection ~ 6100 5750
Wire Wire Line
	8350 4000 8850 4000
Wire Wire Line
	2250 3900 2550 3900
Connection ~ 2250 3900
Wire Wire Line
	3850 3900 4150 3900
Connection ~ 3850 3900
Wire Wire Line
	5450 3900 5750 3900
Connection ~ 5450 3900
Wire Wire Line
	7050 3900 7350 3900
Connection ~ 7050 3900
Wire Wire Line
	8650 3900 8950 3900
Connection ~ 8650 3900
Wire Wire Line
	10250 3900 10550 3900
Connection ~ 10250 3900
Wire Wire Line
	11850 3900 12150 3900
Connection ~ 11850 3900
Wire Wire Line
	13450 3900 13750 3900
Connection ~ 13450 3900
Wire Wire Line
	11550 7000 11550 6800
Wire Wire Line
	11550 6800 13150 6800
Wire Wire Line
	13150 6800 13150 7000
Connection ~ 11550 7000
Connection ~ 13150 7000
Wire Wire Line
	7100 7000 7100 6800
Wire Wire Line
	7100 6800 8700 6800
Wire Wire Line
	8700 6800 8700 7000
Connection ~ 7100 7000
Connection ~ 8700 7000
Wire Wire Line
	4150 5200 7350 5200
Wire Wire Line
	4150 3900 4150 5200
Wire Wire Line
	7350 3900 7350 5200
Wire Wire Line
	7350 5200 10550 5200
Wire Wire Line
	10550 3900 10550 5200
Connection ~ 7350 5200
Wire Wire Line
	10550 5200 13150 5200
Wire Wire Line
	13750 3900 13750 5200
Connection ~ 10550 5200
Wire Wire Line
	13150 6800 13150 5200
Connection ~ 13150 6800
Connection ~ 13150 5200
Wire Wire Line
	13150 5200 13750 5200
Wire Wire Line
	2550 5100 5750 5100
Wire Wire Line
	2550 3900 2550 5100
Wire Wire Line
	5750 3900 5750 5100
Wire Wire Line
	5750 5100 8700 5100
Wire Wire Line
	8950 3900 8950 5100
Connection ~ 5750 5100
Wire Wire Line
	8950 5100 12150 5100
Wire Wire Line
	12150 3900 12150 5100
Connection ~ 8950 5100
Wire Wire Line
	8700 6800 8700 5100
Connection ~ 8700 6800
Connection ~ 8700 5100
Wire Wire Line
	8700 5100 8950 5100
NoConn ~ 2400 4700
NoConn ~ 2400 4600
NoConn ~ 4000 4600
NoConn ~ 4000 4700
NoConn ~ 5600 4600
NoConn ~ 5600 4700
NoConn ~ 7200 4600
NoConn ~ 7200 4700
NoConn ~ 8800 4600
NoConn ~ 8800 4700
NoConn ~ 10400 4600
NoConn ~ 10400 4700
NoConn ~ 12000 4600
NoConn ~ 12000 4700
NoConn ~ 13600 4600
NoConn ~ 13600 4700
$EndSCHEMATC
