M48
INCH,TZ
T1C0.0315
T2C0.0394
T3C0.0400
%
G90
G05
T1
X60551Y-42457
X60551Y-43441
X57598Y-38126
X60598Y-38126
T2
X55118Y-24016
X56118Y-24016
X87079Y-33213
X87079Y-34213
X87079Y-35213
X87079Y-36213
X87079Y-37213
X69114Y-43213
X70114Y-43213
X71114Y-43213
X87079Y-39213
X87079Y-40213
X64193Y-37213
X65193Y-37213
X54134Y-40547
X54134Y-41547
X54134Y-42547
X54134Y-43547
X54134Y-44547
X54134Y-45547
X55134Y-40547
X55134Y-41547
X55134Y-42547
X55134Y-43547
X55134Y-44547
X55134Y-45547
X56079Y-51087
X57079Y-51087
X58079Y-51087
X59079Y-51087
X60079Y-51087
X61079Y-51087
X62079Y-51087
X76085Y-24012
X77085Y-24012
X78085Y-24012
X79085Y-24012
X64276Y-24012
X65276Y-24012
X66276Y-24012
X68211Y-24012
X69211Y-24012
X70211Y-24012
X58370Y-24012
X59370Y-24012
X60370Y-24012
X61370Y-24012
X77079Y-31213
X77079Y-32213
X77079Y-33213
X77079Y-34213
X77079Y-35213
X83081Y-24012
X84081Y-24012
X85081Y-24012
X86081Y-24012
X87081Y-24012
X72148Y-24012
X73148Y-24012
X74148Y-24012
X64193Y-43213
X65193Y-43213
X66193Y-43213
X74035Y-43213
X75035Y-43213
X76035Y-43213
X77035Y-43213
X78035Y-43213
T3
X53479Y-29213
X54479Y-29213
X55479Y-29213
X56079Y-48213
X56479Y-29213
X57079Y-48213
X57479Y-29213
X58079Y-48213
X58479Y-29213
X59079Y-48213
X59479Y-29213
X60079Y-48213
X60479Y-29213
X61079Y-48213
X61479Y-29213
X62079Y-48213
X63079Y-29213
X63079Y-48213
X64079Y-29213
X65079Y-29213
X65079Y-48213
X66079Y-29213
X66079Y-48213
X67079Y-29213
X67079Y-48213
X68079Y-29213
X68079Y-48213
X69079Y-29213
X69079Y-48213
X70079Y-29213
X70079Y-48213
X70129Y-37213
X70129Y-38213
X70129Y-39213
X71079Y-48213
X71129Y-37213
X71129Y-38213
X71129Y-39213
X72079Y-29213
X72079Y-48213
X73079Y-29213
X74079Y-29213
X74079Y-48213
X75079Y-29213
X75079Y-48213
X76079Y-29213
X76079Y-48213
X77079Y-29213
X77079Y-48213
X78079Y-29213
X78079Y-48213
X79079Y-29213
X79079Y-48213
X80079Y-48213
X81079Y-48213
X82079Y-29213
X82079Y-30213
X82079Y-31213
X82079Y-32213
X82079Y-33213
X82079Y-34213
X82079Y-35213
X82079Y-36213
X82079Y-37213
X82079Y-38213
X82079Y-39213
X82079Y-40213
X82079Y-41213
X82079Y-42213
X82079Y-43213
X82079Y-44213
X82079Y-45213
X82079Y-46213
X83079Y-29213
X83079Y-30213
X83079Y-31213
X83079Y-32213
X83079Y-33213
X83079Y-34213
X83079Y-35213
X83079Y-36213
X83079Y-37213
X83079Y-38213
X83079Y-39213
X83079Y-40213
X83079Y-41213
X83079Y-42213
X83079Y-43213
X83079Y-44213
X83079Y-45213
X83079Y-46213
T0
M30
