M48
INCH,TZ
T1C0.0787
T2C0.1260
%
G90
G05
T1
X38248Y-24252
X40059Y-21890
X41870Y-24252
X43563Y-24252
X45374Y-21890
X47185Y-24252
X48878Y-24252
X50689Y-21890
X52500Y-24252
X54193Y-24252
X56004Y-21890
X57815Y-24252
X44547Y-38346
X46358Y-40709
X48169Y-38346
T2
X38976Y-40551
T0
M30
